{
	"info": {
		"_postman_id": "e1177e2c-ef78-4c37-8cf0-657e0a5d3220",
		"name": "Feedback",
		"schema": "https://schema.getpostman.com/json/collection/v2.1.0/collection.json"
	},
	"item": [
		{
			"name": "feedback-backend/application-contributions",
			"item": [
				{
					"name": "Submit contribution about an application",
					"request": {
						"auth": {
							"type": "bearer",
							"bearer": [
								{
									"key": "token",
									"value": "cv72qgzokx-7pXoNic4XiGdFaaZCf0co4gvbhgctMKk.kAOsvTDuU7oK9JQaHoekbpFsyetYK8z_x_4sA036ttU",
									"type": "string"
								}
							]
						},
						"method": "POST",
						"header": [
							{
								"key": "Content-Type",
								"name": "Content-Type",
								"value": "application/json",
								"type": "text"
							}
						],
						"body": {
							"mode": "raw",
							"raw": "{\n\t\"link\": \"lesjonis.com/rgpd\",\n\t\"user_id\": \"18b88d48-ad48-43b9-a323-eab1de68b280\",\n\t\"application_id\": \"00000000-1111-2222-3333-444444444444\"\n}"
						},
						"url": {
							"raw": "{{feedback_backend}}/application-contributions",
							"host": [
								"{{feedback_backend}}"
							],
							"path": [
								"application-contributions"
							]
						}
					},
					"response": []
				},
				{
					"name": "List all contributions",
					"request": {
						"auth": {
							"type": "bearer",
							"bearer": [
								{
									"key": "token",
									"value": "BJ6V1R_R44WRlgm3bRo3DQsqlLPcCRRpNELqfxD70_g.wzFqCMiCj5fpmyDxTCYXm0syK4e0CXD6V61PhZAmIt8",
									"type": "string"
								}
							]
						},
						"method": "GET",
						"header": [],
						"url": {
							"raw": "{{feedback_backend}}/application-contributions",
							"host": [
								"{{feedback_backend}}"
							],
							"path": [
								"application-contributions"
							]
						}
					},
					"response": []
				},
				{
					"name": "Delete a contribution",
					"request": {
						"auth": {
							"type": "bearer",
							"bearer": [
								{
									"key": "token",
									"value": "BJ6V1R_R44WRlgm3bRo3DQsqlLPcCRRpNELqfxD70_g.wzFqCMiCj5fpmyDxTCYXm0syK4e0CXD6V61PhZAmIt8",
									"type": "string"
								}
							]
						},
						"method": "DELETE",
						"header": [],
						"url": {
							"raw": "{{feedback_backend}}/application-contributions/:id",
							"host": [
								"{{feedback_backend}}"
							],
							"path": [
								"application-contributions",
								":id"
							],
							"variable": [
								{
									"key": "id",
									"value": "3"
								}
							]
						}
					},
					"response": []
				}
			],
			"protocolProfileBehavior": {}
		},
		{
			"name": "feedback-backend/ratings",
			"item": [
				{
					"name": "Post Rating",
					"request": {
						"auth": {
							"type": "bearer",
							"bearer": [
								{
									"key": "token",
									"value": "g608EwjlI9yLhJ2HIdR58irJTMQVIFIOmQiXiSj1qwo.5j8Srtde-4p8jsQkWsglFtWujcCiwToQDoayS9Sdy0U",
									"type": "string"
								}
							]
						},
						"method": "POST",
						"header": [
							{
								"key": "Content-Type",
								"name": "Content-Type",
								"value": "application/json",
								"type": "text"
							}
						],
						"body": {
							"mode": "raw",
							"raw": "{\n\t\"user_id\" : \"18b88d48-ad48-43b9-a323-eab1de68b280\",\n\t\"application_id\" : \"00000000-1111-2222-3333-444444444444\",\n\t\"value\" : 5,\n\t\"comment\" : \"Le Lorem Ipsum est simplement du faux texte employé dans la composition et la mise en page avant impression. Le Lorem Ipsum est le faux texte standard de l'imprimerie depuis les années 1500, quand un imprimeur anonyme assembla ensemble des morceaux de texte pour réaliser un livre spécimen de polices de texte\"\n}"
						},
						"url": {
							"raw": "{{feedback_backend}}/ratings",
							"host": [
								"{{feedback_backend}}"
							],
							"path": [
								"ratings"
							]
						}
					},
					"response": []
				},
				{
					"name": "List Ratings",
					"request": {
						"auth": {
							"type": "oauth2",
							"oauth2": [
								{
									"key": "accessToken",
									"value": "dh5UsbEp53k54ikIaMaBM2O03a-_9DLuD70fBREJCZI.i_r2fIMgmCvaE3Zlh1cbrJma76bO4CyvxhFWjE2wQFo",
									"type": "string"
								},
								{
									"key": "tokenType",
									"value": "bearer",
									"type": "string"
								},
								{
									"key": "addTokenTo",
									"value": "header",
									"type": "string"
								}
							]
						},
						"method": "GET",
						"header": [],
						"url": {
							"raw": "{{feedback_backend}}/ratings?application_id=00000000-1111-2222-3333-444444444444&with_users=true",
							"host": [
								"{{feedback_backend}}"
							],
							"path": [
								"ratings"
							],
							"query": [
								{
									"key": "application_id",
									"value": "00000000-1111-2222-3333-444444444444"
								},
								{
									"key": "with_users",
									"value": "true"
								}
							]
						}
					},
					"response": []
				},
				{
					"name": "Patch a Rating",
					"request": {
						"auth": {
							"type": "bearer",
							"bearer": [
								{
									"key": "token",
									"value": "dh5UsbEp53k54ikIaMaBM2O03a-_9DLuD70fBREJCZI.i_r2fIMgmCvaE3Zlh1cbrJma76bO4CyvxhFWjE2wQFo",
									"type": "string"
								}
							]
						},
						"method": "PATCH",
						"header": [
							{
								"key": "Content-Type",
								"name": "Content-Type",
								"value": "application/json",
								"type": "text"
							}
						],
						"body": {
							"mode": "raw",
							"raw": "{\n\t\"value\": 1,\n\t\"comment\": \"This is an updated commentary\"\n}",
							"options": {
								"raw": {
									"language": "json"
								}
							}
						},
						"url": {
							"raw": "{{feedback_backend}}/ratings/:id",
							"host": [
								"{{feedback_backend}}"
							],
							"path": [
								"ratings",
								":id"
							],
							"variable": [
								{
									"key": "id",
									"value": "24"
								}
							]
						}
					},
					"response": []
				},
				{
					"name": "Delete Rating",
					"request": {
						"auth": {
							"type": "bearer",
							"bearer": [
								{
									"key": "token",
									"value": "dh5UsbEp53k54ikIaMaBM2O03a-_9DLuD70fBREJCZI.i_r2fIMgmCvaE3Zlh1cbrJma76bO4CyvxhFWjE2wQFo",
									"type": "string"
								}
							]
						},
						"method": "DELETE",
						"header": [],
						"url": {
							"raw": "{{feedback_backend}}/ratings/:id",
							"host": [
								"{{feedback_backend}}"
							],
							"path": [
								"ratings",
								":id"
							],
							"variable": [
								{
									"key": "id",
									"value": "24"
								}
							]
						}
					},
					"response": []
				}
			],
			"protocolProfileBehavior": {}
		},
		{
			"name": "feedback-backend/users",
			"item": [
				{
					"name": "Delete user ratings",
					"request": {
						"method": "DELETE",
						"header": [],
						"url": {
							"raw": "{{feedback_backend}}/:id",
							"host": [
								"{{feedback_backend}}"
							],
							"path": [
								":id"
							],
							"variable": [
								{
									"key": "id",
									"value": ""
								}
							]
						}
					},
					"response": []
				}
			],
			"protocolProfileBehavior": {}
		}
	],
	"event": [
		{
			"listen": "prerequest",
			"script": {
				"id": "75dba0a7-cfea-4be7-bbbd-a1b34ca1226d",
				"type": "text/javascript",
				"exec": [
					""
				]
			}
		},
		{
			"listen": "test",
			"script": {
				"id": "80ccd9d6-f103-414b-ba6b-db662456b20e",
				"type": "text/javascript",
				"exec": [
					""
				]
			}
		}
	],
	"variable": [
		{
			"id": "69afa0bb-f43e-4651-b220-a12d16746015",
			"key": "feedback_backend",
			"value": "https://api.misakey.com.local",
			"type": "string"
		}
	],
	"protocolProfileBehavior": {}
}